{
    "nome": "Mano Plushenko",
    "jogador": "Leandro",
    "xp_sobrando": 46,
    "kits": [
        {
            "nome": "Necromante",
            "suplemento": "Manual do Aventureiro Alpha"
        }
    ],
    "características": {
        "f": {
            "base": 0,
            "danos": [
                {
                    "nome": "Contusão"
                }
            ],
            "modificadores": []
        },
        "h": {
            "base": 5,
            "modificadores": []
        },
        "r": {
            "base": 3,
            "modificadores": []
        },
        "a": {
            "base": 0,
            "modificadores": [
                {
                    "valor": 2,
                    "nota": "Quando o personagem do Baltazar está por perto",
                    "ativo": true
                }
            ]
        },
        "pdf": {
            "base": 0,
            "danos": [
                {
                    "nome": "Perfuração"
                }
            ],
            "modificadores": []
        }
    },
    "situação": {
        "pv": {
            "atual": 15,
            "max": []
        },
        "pm": {
            "atual": 25,
            "max": []
        }
    },
    "vantagens": [
        {
            "nome": "Magia Negra",
            "pontos": 2,
            "suplemento": "Manual 3D&T Alpha"
        },
        {
            "nome": "Pontos de Magia Extras",
            "pontos": 1,
            "suplemento": "Manual 3D&T Alpha"
        },
        {
            "nome": "Energia Vital",
            "pontos": 2,
            "suplemento": "Manual 3D&T Alpha"
        },
        {
            "nome": "Conhecimento Necromântico",
            "pontos": 1,
            "suplemento": "Manual do Aventureiro Alpha"
        },
        {
            "nome": "Servo Desmorto",
            "pontos": 1,
            "suplemento": "Manual do Aventureiro Alpha"
        },
        {
            "nome": "Parceiro",
            "pontos": 1,
            "suplemento": "Manual 3D&T Alpha"
        },
        {
            "nome": "Munição Limitada",
            "pontos": -1,
            "suplemento": "Manual 3D&T Alpha"
        },
        {
            "nome": "Má Fama",
            "pontos": -1,
            "suplemento": "Manual 3D&T Alpha"
        }
    ],
    "perícias": [
        {
            "nome": "Medicina",
            "pontos": 2,
            "suplemento": "Manual 3D&T Alpha"
        }
    ],
    "magias": [
        {
            "nome": "Ataque Mágico",
            "suplemento": "Manual 3D&T Alpha"
        },
        {
            "nome": "Cancelamento de Magia",
            "suplemento": "Manual 3D&T Alpha"
        },
        {
            "nome": "Detecção de Magia",
            "suplemento": "Manual 3D&T Alpha"
        },
        {
            "nome": "Força Mágica",
            "suplemento": "Manual 3D&T Alpha"
        },
        {
            "nome": "Pequenos Desejos",
            "suplemento": "Manual 3D&T Alpha"
        },
        {
            "nome": "Proteção Mágica",
            "suplemento": "Manual 3D&T Alpha"
        },
        {
            "nome": "Controle de Mortos-Vivos",
            "suplemento": "Manual 3D&T Alpha"
        },
        {
            "nome": "Criação de Mortos-Vivos",
            "suplemento": "Manual 3D&T Alpha"
        },
        {
            "nome": "Cura para os Mortos",
            "suplemento": "Manual 3D&T Alpha"
        },
        {
            "nome": "Magia do Vinícius",
            "suplemento": "Livro do Vinícius"
        }
    ],
    "itens": [
        {
            "nome": "Livro das Estrelas",
            "suplemento": "Livro do Vinícius",
            "quantidade": 1
        },
        {
            "nome": "Porção de 5 MP",
            "quantidade": 6,
            "suplemento": "Livro do Vinícius"
        },
        {
            "nome": "Potion 10 PVs",
            "quantidade": 1,
            "suplemento": "Livro do Baltazar"
        },
        {
            "nome": "Potion 10 PMs",
            "quantidade": 1,
            "suplemento": "Livro do Baltazar"
        },
        {
            "nome": "Argent",
            "quantidade": 99600,
            "suplemento": "Livro do Vinícius"
        }
    ],
    "história": ""
}
